Class Practice Function, Vector and More
…
Data Frame

Create a data frame

set.seed(10)
data_frame <- tibble(  
  c1 = rnorm(50, 5, 1.5), 
  c2 = rnorm(50, 5, 1.5),    
  c3 = rnorm(50, 5, 1.5),
  c4 = rnorm(50, 5, 1.5),    
  c5 = rnorm(50, 5, 1.5)
)
data_frame

# A tibble: 50 × 5
      c1    c2    c3    c4    c5
   <dbl> <dbl> <dbl> <dbl> <dbl>
 1  5.03  4.40  3.86  4.41  6.82
 2  4.72  4.50  5.63  4.63  5.50
 3  2.94  7.05  3.44  6.73  7.09
 4  4.10  8.21  6.07  3.70  6.31
 5  5.44  5.76  4.05  3.70  3.38
 6  5.58  6.18  5.84  1.52  5.74
 7  3.19  3.65  5.99  5.91  6.58
 8  4.45  5.80  2.51  6.73  3.09
 9  2.56  4.03  6.54  3.20  4.71
10  4.62  5.44  6.69  2.63  3.06
# ℹ 40 more rows
…
